<?xml version="1.0" encoding="UTF-8"?>
<kml xmlns="http://www.opengis.net/kml/2.2">
  <Document>
    <name>Klin.lu</name>
    <description/>
    <Style id="poly-87CEAC-4301-77-nodesc-normal">
      <LineStyle>
        <color>ffacce87</color>
        <width>4.301</width>
      </LineStyle>
      <PolyStyle>
        <color>4dacce87</color>
        <fill>1</fill>
        <outline>1</outline>
      </PolyStyle>
      <BalloonStyle>
        <text><![CDATA[<h3>$[name]</h3>]]></text>
      </BalloonStyle>
    </Style>
    <Style id="poly-87CEAC-4301-77-nodesc-highlight">
      <LineStyle>
        <color>ffacce87</color>
        <width>6.4515</width>
      </LineStyle>
      <PolyStyle>
        <color>4dacce87</color>
        <fill>1</fill>
        <outline>1</outline>
      </PolyStyle>
      <BalloonStyle>
        <text><![CDATA[<h3>$[name]</h3>]]></text>
      </BalloonStyle>
    </Style>
    <StyleMap id="poly-87CEAC-4301-77-nodesc">
      <Pair>
        <key>normal</key>
        <styleUrl>#poly-87CEAC-4301-77-nodesc-normal</styleUrl>
      </Pair>
      <Pair>
        <key>highlight</key>
        <styleUrl>#poly-87CEAC-4301-77-nodesc-highlight</styleUrl>
      </Pair>
    </StyleMap>
    <Folder>
      <name>Klin delivery area</name>
      <Placemark>
        <name>Klin 2017</name>
        <styleUrl>#poly-87CEAC-4301-77-nodesc</styleUrl>
        <Polygon>
          <outerBoundaryIs>
            <LinearRing>
              <tessellate>1</tessellate>
              <coordinates>
                6.0536385,49.6318396,0
                6.0387039,49.6104875,0
                6.0508919,49.5962475,0
                6.0829926,49.6019218,0
                6.0876274,49.5994741,0
                6.0865974,49.58601,0
                6.1303711,49.5743233,0
                6.1444473,49.5596274,0
                6.1660767,49.5625224,0
                6.1822128,49.5847858,0
                6.1811829,49.6104875,0
                6.1810112,49.637732,0
                6.1396408,49.6500704,0
                6.1226463,49.6468472,0
                6.1250496,49.6419563,0
                6.1101151,49.6369538,0
                6.0982704,49.6612946,0
                6.0905457,49.6666279,0
                6.0732079,49.660739,0
                6.0536385,49.6318396,0
              </coordinates>
            </LinearRing>
          </outerBoundaryIs>
        </Polygon>
      </Placemark>
    </Folder>
  </Document>
</kml>
