<?xml version="1.0" encoding="UTF-8"?>
<kml xmlns="http://www.opengis.net/kml/2.2">
  <Document>
    <name>Klin.lu</name>
    <description/>
    <NetworkLink>
      <name>Klin.lu</name>
      <Link>
        <href><![CDATA[http://www.google.com/maps/d/kml?forcekml=1&mid=1GfjtbFIak9382nXPWz5MX5JUlzs]]></href>
      </Link>
    </NetworkLink>
  </Document>
</kml>
